…
``` r
testsize
```

    ## [1] 15

``` r
training_indices <- sample(seq_len(nrow(cars_no_outlier)), trainsize)
trainset <- cars_no_outlier[training_indices,]
testset <- cars_no_outlier[-training_indices,]
```

Trainset

    ## # A tibble: 34 x 3
    ##    brand      speed2 distance
    ##    <chr>       <dbl>    <dbl>
    ##  1 GM            289       46
    ##  2 Nissan        144       26
    ##  3 Mitsubishi    144       26
    ##  4 Honda          49       10
    ##  5 Dodge         400       68
    ##  6 Acura         400       70
    ##  7 Mitsubishi    361       56
    ##  8 Jeep          576       85
    ##  9 Jeep          225       36
    ## 10 Honda         225       36
    ## # ... with 24 more rows
…
